CodeEditingAction 1639411350932 PglTest.java ADD void testTradfrasiMaiuscole()/2 METHOD
CodeEditingAction 1639411358957 PglTest.java RENAME testTradfrasiMaiuscole()/2=>void testTradfrasiMaiuscol() METHOD
CodeEditingAction 1639411360464 PglTest.java RENAME testTradfrasiMaiuscol()=>void testTradfrasi() METHOD
CodeEditingAction 1639411363471 PglTest.java RENAME testTradfrasi()=>void testTradfrasiTitlwe() METHOD
CodeEditingAction 1639411365478 PglTest.java RENAME testTradfrasiTitlwe()=>void testTradfrasiTitle() METHOD
CodeEditingAction 1639411367486 PglTest.java RENAME testTradfrasiTitle()=>void testTradfrasiTitleCase() METHOD
CodeEditingAction 1639411449053 PglTest.java CHANGE PglTest.java CLASS
EditAction 1639411449053 PglTest.java 5692 26 78 26
EditAction 1639411449079 PglTest.java 5692 26 78 26
TestFailureAction 1639411449457 PglTest.java FAIL
EditAction 1639411449542 PglTest.java 5692 26 78 26
CodeEditingAction 1639411510875 Plg.java CHANGE Plg.java CLASS
TestFailureAction 1639411511295 PglTest.java FAIL
EditAction 1639411511511 Plg.java 5145 11 24 0
CodeEditingAction 1639412011839 Plg.java CHANGE Plg.java CLASS
TestPassAction 1639412012247 PglTest.java OK
EditAction 1639412012581 Plg.java 5479 11 24 0
CodeEditingAction 1639412128521 Plg.java CHANGE Plg.java CLASS
TestFailureAction 1639412128964 PglTest.java FAIL
EditAction 1639412129154 Plg.java 5654 11 24 0
CodeEditingAction 1639412157276 Plg.java CHANGE Plg.java CLASS
TestFailureAction 1639412157692 PglTest.java FAIL
EditAction 1639412157920 Plg.java 5426 11 24 0
CodeEditingAction 1639412255432 Plg.java CHANGE Plg.java CLASS
TestPassAction 1639412255840 PglTest.java OK
EditAction 1639412256161 Plg.java 5397 11 24 0
CodeEditingAction 1639412295090 PglTest.java CHANGE PglTest.java CLASS
EditAction 1639412295091 PglTest.java 5702 26 78 26
EditAction 1639412295118 PglTest.java 5702 26 78 26
EditAction 1639412295476 PglTest.java 5702 26 78 26
TestFailureAction 1639412295527 PglTest.java FAIL
CodeEditingAction 1639412333808 PglTest.java CHANGE PglTest.java CLASS
EditAction 1639412333808 PglTest.java 5692 26 78 26
EditAction 1639412333837 PglTest.java 5692 26 78 26
EditAction 1639412334211 PglTest.java 5692 26 78 26
TestPassAction 1639412334246 PglTest.java OK
