CodeEditingAction 1639267345659 Plg.java CHANGE Plg.java CLASS
EditAction 1639267345787 Plg.java 2140 5 6 0
TestFailureAction 1639267346651 PglTest.java FAIL
EditAction 1639267346685 Plg.java 2140 5 6 0
CodeEditingAction 1639267384685 Plg.java CHANGE Plg.java CLASS
EditAction 1639267384823 Plg.java 2140 5 6 0
EditAction 1639267385705 Plg.java 2140 5 6 0
TestFailureAction 1639267385888 PglTest.java FAIL
CodeEditingAction 1639267609707 Plg.java CHANGE Plg.java CLASS
EditAction 1639267609833 Plg.java 2315 5 6 0
EditAction 1639267610778 Plg.java 2315 5 6 0
TestFailureAction 1639267610944 PglTest.java FAIL
CodeEditingAction 1639267631952 Plg.java CHANGE Plg.java CLASS
EditAction 1639267632070 Plg.java 2315 5 6 0
TestFailureAction 1639267632911 PglTest.java FAIL
EditAction 1639267633042 Plg.java 2315 5 6 0
EditAction 1639267714484 Plg.java 2315 5 6 0
EditAction 1639267714494 Plg.java 2315 5 6 0
EditAction 1639267714542 Plg.java 2315 5 6 0
CodeEditingAction 1639267720203 Plg.java CHANGE Plg.java CLASS
TestPassAction 1639267721245 PglTest.java OK
EditAction 1639267721263 Plg.java 2140 5 6 0
CodeEditingAction 1639267754295 Plg.java CHANGE Plg.java CLASS
TestPassAction 1639267755187 PglTest.java OK
EditAction 1639267755352 Plg.java 1984 5 6 0
