CodeEditingAction 1639309929196 PglTest.java CHANGE PglTest.java CLASS
EditAction 1639309929198 PglTest.java 3634 17 51 17
EditAction 1639309929260 PglTest.java 3634 17 51 17
EditAction 1639309929727 PglTest.java 3634 17 51 17
TestFailureAction 1639309930124 PglTest.java FAIL
CodeEditingAction 1639310007977 Plg.java CHANGE Plg.java CLASS
EditAction 1639310008720 Plg.java 2532 9 18 0
TestFailureAction 1639310008874 PglTest.java FAIL
CodeEditingAction 1639310326675 PglTest.java CHANGE PglTest.java CLASS
EditAction 1639310326676 PglTest.java 3602 17 51 17
EditAction 1639310326735 PglTest.java 3602 17 51 17
EditAction 1639310327191 PglTest.java 3602 17 51 17
TestFailureAction 1639310327729 PglTest.java FAIL
CodeEditingAction 1639310387042 Plg.java CHANGE Plg.java CLASS
EditAction 1639310387833 Plg.java 2537 9 17 0
TestFailureAction 1639310388017 PglTest.java FAIL
CodeEditingAction 1639310421286 Plg.java CHANGE Plg.java CLASS
EditAction 1639310421924 Plg.java 2568 9 17 0
TestFailureAction 1639310422371 PglTest.java FAIL
CodeEditingAction 1639310480549 Plg.java CHANGE Plg.java CLASS
EditAction 1639310481225 Plg.java 2612 9 17 0
TestFailureAction 1639310481514 PglTest.java FAIL
CodeEditingAction 1639310549644 PglTest.java CHANGE PglTest.java CLASS
EditAction 1639310549645 PglTest.java 3590 17 51 17
EditAction 1639310549703 PglTest.java 3590 17 51 17
EditAction 1639310550136 PglTest.java 3590 17 51 17
TestPassAction 1639310550582 PglTest.java OK
CodeEditingAction 1639310589737 PglTest.java CHANGE PglTest.java CLASS
EditAction 1639310589738 PglTest.java 3602 17 51 17
EditAction 1639310589792 PglTest.java 3602 17 51 17
EditAction 1639310590254 PglTest.java 3602 17 51 17
TestFailureAction 1639310590649 PglTest.java FAIL
CodeEditingAction 1639310741703 Plg.java CHANGE Plg.java CLASS
EditAction 1639310742454 Plg.java 2749 9 19 0
TestFailureAction 1639310742889 PglTest.java FAIL
CodeEditingAction 1639310822595 Plg.java CHANGE Plg.java CLASS
EditAction 1639310823254 Plg.java 2753 9 19 0
TestFailureAction 1639310823578 PglTest.java FAIL
CodeEditingAction 1639310859507 Plg.java CHANGE Plg.java CLASS
EditAction 1639310860222 Plg.java 2755 9 19 0
TestPassAction 1639310860420 PglTest.java OK
CodeEditingAction 1639310953113 PglTest.java CHANGE PglTest.java CLASS
EditAction 1639310953114 PglTest.java 3623 17 51 17
EditAction 1639310953176 PglTest.java 3623 17 51 17
EditAction 1639310953625 PglTest.java 3623 17 51 17
TestFailureAction 1639310954058 PglTest.java FAIL
CodeEditingAction 1639310980065 PglTest.java CHANGE PglTest.java CLASS
EditAction 1639310980066 PglTest.java 3623 17 51 17
EditAction 1639310980120 PglTest.java 3623 17 51 17
EditAction 1639310980568 PglTest.java 3623 17 51 17
TestPassAction 1639310980970 PglTest.java OK
