CodeEditingAction 1639350198442 Plg.java CHANGE Plg.java CLASS
EditAction 1639350198508 Plg.java 5810 12 30 0
EditAction 1639350201607 Plg.java 5810 12 30 0
TestFailureAction 1639350202706 PglTest.java FAIL
CodeEditingAction 1639350284905 Plg.java CHANGE Plg.java CLASS
EditAction 1639350285017 Plg.java 5773 12 31 0
EditAction 1639350287521 Plg.java 5773 12 31 0
TestFailureAction 1639350288661 PglTest.java FAIL
CodeEditingAction 1639350341438 Plg.java CHANGE Plg.java CLASS
EditAction 1639350341521 Plg.java 5804 12 32 0
EditAction 1639350344382 Plg.java 5804 12 32 0
TestFailureAction 1639350344876 PglTest.java FAIL
CodeEditingAction 1639350451032 Plg.java CHANGE Plg.java CLASS
EditAction 1639350451117 Plg.java 5776 12 32 0
EditAction 1639350453735 Plg.java 5776 12 32 0
TestFailureAction 1639350454268 PglTest.java FAIL
CodeEditingAction 1639350593553 Plg.java CHANGE Plg.java CLASS
EditAction 1639350593720 PglTest.java 4817 22 66 22
EditAction 1639350596052 Plg.java 4747 11 20 0
TestFailureAction 1639350596892 PglTest.java FAIL
CodeEditingAction 1639350876864 Plg.java ADD Plg.java CLASS
CodeEditingAction 1639350879988 Plg.java ADD Plg.java CLASS
CodeEditingAction 1639351439617 Plg.java CHANGE Plg.java CLASS
EditAction 1639351439678 Plg.java 5749 11 23 0
EditAction 1639351442619 Plg.java 5749 11 23 0
TestFailureAction 1639351443331 PglTest.java FAIL
CodeEditingAction 1639352092524 Plg.java CHANGE Plg.java CLASS
EditAction 1639352092602 Plg.java 6074 11 24 0
EditAction 1639352094576 Plg.java 6074 11 24 0
TestFailureAction 1639352095943 PglTest.java FAIL
CodeEditingAction 1639352114713 Plg.java CHANGE Plg.java CLASS
EditAction 1639352114716 Plg.java 6074 11 24 0
EditAction 1639352114829 Plg.java 6074 11 24 0
EditAction 1639352116800 Plg.java 6074 11 24 0
TestFailureAction 1639352118269 PglTest.java FAIL
CodeEditingAction 1639352286627 Plg.java ADD Plg.java CLASS
CodeEditingAction 1639352584467 Plg.java CHANGE Plg.java CLASS
EditAction 1639352584542 Plg.java 6343 11 23 0
EditAction 1639352586820 Plg.java 6343 11 23 0
TestFailureAction 1639352588240 PglTest.java FAIL
CodeEditingAction 1639353088834 Plg.java CHANGE Plg.java CLASS
EditAction 1639353091188 Plg.java 6499 11 23 0
TestFailureAction 1639353092435 PglTest.java FAIL
CodeEditingAction 1639353120457 Plg.java CHANGE Plg.java CLASS
EditAction 1639353122909 Plg.java 6530 11 24 0
TestFailureAction 1639353124106 PglTest.java FAIL
CodeEditingAction 1639353311015 Plg.java CHANGE Plg.java CLASS
EditAction 1639353313749 Plg.java 6587 11 24 0
TestFailureAction 1639353314476 PglTest.java FAIL
CodeEditingAction 1639353382302 Plg.java CHANGE Plg.java CLASS
EditAction 1639353384973 Plg.java 6698 11 24 0
TestFailureAction 1639353385813 PglTest.java FAIL
CodeEditingAction 1639353433900 Plg.java CHANGE Plg.java CLASS
EditAction 1639353436474 Plg.java 6730 11 24 0
TestFailureAction 1639353437211 PglTest.java FAIL
CodeEditingAction 1639353508234 Plg.java CHANGE Plg.java CLASS
EditAction 1639353510613 Plg.java 6726 11 24 0
TestFailureAction 1639353511677 PglTest.java FAIL
CodeEditingAction 1639353624162 Plg.java CHANGE Plg.java CLASS
EditAction 1639353626790 Plg.java 6800 11 23 0
TestFailureAction 1639353627424 PglTest.java FAIL
CodeEditingAction 1639353685915 Plg.java CHANGE Plg.java CLASS
EditAction 1639353688031 Plg.java 6800 11 22 0
TestFailureAction 1639353689010 PglTest.java FAIL
CodeEditingAction 1639353739228 Plg.java CHANGE Plg.java CLASS
TestFailureAction 1639353742418 PglTest.java FAIL
CodeEditingAction 1639353793680 Plg.java CHANGE Plg.java CLASS
EditAction 1639353796232 Plg.java 6801 11 23 0
TestFailureAction 1639353797196 PglTest.java FAIL
CodeEditingAction 1639354132867 Plg.java CHANGE Plg.java CLASS
EditAction 1639354135482 Plg.java 6948 11 24 0
TestFailureAction 1639354136659 PglTest.java FAIL
CodeEditingAction 1639354272250 Plg.java CHANGE Plg.java CLASS
EditAction 1639354274993 Plg.java 6976 11 24 0
TestFailureAction 1639354275936 PglTest.java FAIL
CodeEditingAction 1639354318625 Plg.java CHANGE Plg.java CLASS
EditAction 1639354321246 Plg.java 7004 11 24 0
TestFailureAction 1639354322018 PglTest.java FAIL
CodeEditingAction 1639354554856 Plg.java CHANGE Plg.java CLASS
EditAction 1639354557403 Plg.java 7006 11 24 0
TestFailureAction 1639354558788 PglTest.java FAIL
CodeEditingAction 1639354687900 Plg.java CHANGE Plg.java CLASS
EditAction 1639354690642 Plg.java 7004 11 24 0
TestFailureAction 1639354691331 PglTest.java FAIL
CodeEditingAction 1639354986236 Plg.java CHANGE Plg.java CLASS
EditAction 1639354989231 Plg.java 7096 11 24 0
TestFailureAction 1639354989428 PglTest.java FAIL
CodeEditingAction 1639355020799 Plg.java CHANGE Plg.java CLASS
EditAction 1639355023241 Plg.java 7139 11 24 0
TestFailureAction 1639355024451 PglTest.java FAIL
CodeEditingAction 1639355089458 Plg.java CHANGE Plg.java CLASS
EditAction 1639355092133 Plg.java 6975 11 24 0
TestFailureAction 1639355092807 PglTest.java FAIL
