CodeEditingAction 1639264771545 Plg.java CHANGE Plg.java CLASS
EditAction 1639264771545 Plg.java 1581 5 6 0
EditAction 1639264772077 Plg.java 1581 5 6 0
CodeEditingAction 1639264838773 Plg.java CHANGE Plg.java CLASS
EditAction 1639264838773 Plg.java 1576 5 6 0
EditAction 1639264839648 Plg.java 1576 5 6 0
CodeEditingAction 1639264849620 Plg.java CHANGE Plg.java CLASS
EditAction 1639264849620 Plg.java 1581 5 6 0
EditAction 1639264850509 Plg.java 1581 5 6 0
CodeEditingAction 1639264883127 Plg.java CHANGE Plg.java CLASS
TestFailureAction 1639264883755 PglTest.java FAIL
EditAction 1639264884116 Plg.java 1592 5 6 0
CodeEditingAction 1639264952287 Plg.java CHANGE Plg.java CLASS
TestFailureAction 1639264952898 PglTest.java FAIL
EditAction 1639264953225 Plg.java 1660 5 6 0
CodeEditingAction 1639264993434 Plg.java CHANGE Plg.java CLASS
EditAction 1639264993434 Plg.java 1661 5 6 0
TestFailureAction 1639264994203 PglTest.java FAIL
EditAction 1639264994329 Plg.java 1661 5 6 0
CodeEditingAction 1639265075346 Plg.java CHANGE Plg.java CLASS
TestFailureAction 1639265076139 PglTest.java FAIL
EditAction 1639265076260 Plg.java 1665 5 6 0
CodeEditingAction 1639265148635 Plg.java ADD boolean iniziaPerVocale() METHOD
CodeEditingAction 1639265148635 Plg.java ADD boolean finiscePerVocale() METHOD
CodeEditingAction 1639265581272 Plg.java CHANGE Plg.java CLASS
TestFailureAction 1639265581904 PglTest.java FAIL
EditAction 1639265582383 Plg.java 1994 5 6 0
CodeEditingAction 1639265606714 Plg.java CHANGE Plg.java CLASS
TestFailureAction 1639265607329 PglTest.java FAIL
EditAction 1639265607769 Plg.java 1984 5 6 0
EditAction 1639265637797 Plg.java 1984 5 6 0
EditAction 1639265637806 Plg.java 1984 5 6 0
EditAction 1639265637963 Plg.java 1984 5 6 0
CodeEditingAction 1639265739941 Plg.java CHANGE Plg.java CLASS
EditAction 1639265740036 Plg.java 2055 5 6 0
TestFailureAction 1639265740628 PglTest.java FAIL
EditAction 1639265740873 Plg.java 2055 5 6 0
CodeEditingAction 1639265856348 Plg.java CHANGE Plg.java CLASS
EditAction 1639265856440 Plg.java 2142 5 6 0
TestFailureAction 1639265857122 PglTest.java FAIL
EditAction 1639265857268 Plg.java 2142 5 6 0
CodeEditingAction 1639265897577 Plg.java CHANGE Plg.java CLASS
EditAction 1639265897683 Plg.java 2140 5 6 0
TestFailureAction 1639265898302 PglTest.java FAIL
EditAction 1639265898596 Plg.java 2140 5 6 0
CodeEditingAction 1639265943288 Plg.java CHANGE Plg.java CLASS
EditAction 1639265943372 Plg.java 2140 5 6 0
TestFailureAction 1639265944002 PglTest.java FAIL
EditAction 1639265944191 Plg.java 2140 5 6 0
