CodeEditingAction 1639308710810 Plg.java CHANGE Plg.java CLASS
EditAction 1639308710935 Plg.java 2500 9 18 0
EditAction 1639308711635 Plg.java 2500 9 18 0
TestPassAction 1639308711952 PglTest.java OK
CodeEditingAction 1639308863878 Plg.java CHANGE Plg.java CLASS
EditAction 1639308863994 Plg.java 2500 9 18 0
EditAction 1639308864502 Plg.java 2500 9 18 0
TestPassAction 1639308864883 PglTest.java OK
CodeEditingAction 1639308941805 Plg.java CHANGE Plg.java CLASS
EditAction 1639308941940 Plg.java 2494 9 18 0
EditAction 1639308942533 Plg.java 2494 9 18 0
TestPassAction 1639308942938 PglTest.java OK
EditAction 1639309160438 Plg.java 2494 9 18 0
EditAction 1639309160449 Plg.java 2494 9 18 0
EditAction 1639309160459 Plg.java 2494 9 18 0
EditAction 1639309160520 Plg.java 2494 9 18 0
EditAction 1639309160633 Plg.java 2494 9 18 0
EditAction 1639309167333 Plg.java 2494 9 18 0
EditAction 1639309167344 Plg.java 2494 9 18 0
EditAction 1639309167357 Plg.java 2494 9 18 0
EditAction 1639309167387 Plg.java 2494 9 18 0
EditAction 1639309167548 Plg.java 2494 9 18 0
EditAction 1639309168814 Plg.java 2494 9 18 0
EditAction 1639309168825 Plg.java 2494 9 18 0
EditAction 1639309168837 Plg.java 2494 9 18 0
EditAction 1639309168869 Plg.java 2494 9 18 0
EditAction 1639309168982 Plg.java 2494 9 18 0
EditAction 1639309170927 Plg.java 2494 9 18 0
EditAction 1639309170939 Plg.java 2494 9 18 0
EditAction 1639309171055 Plg.java 2494 9 18 0
EditAction 1639309172228 Plg.java 2494 9 18 0
EditAction 1639309172239 Plg.java 2494 9 18 0
EditAction 1639309172253 Plg.java 2494 9 18 0
EditAction 1639309172290 Plg.java 2494 9 18 0
EditAction 1639309172516 Plg.java 2494 9 18 0
EditAction 1639309178536 Plg.java 2494 9 18 0
EditAction 1639309178546 Plg.java 2494 9 18 0
EditAction 1639309178660 Plg.java 2494 9 18 0
EditAction 1639309179286 Plg.java 2494 9 18 0
EditAction 1639309179297 Plg.java 2494 9 18 0
EditAction 1639309179313 Plg.java 2494 9 18 0
EditAction 1639309179352 Plg.java 2494 9 18 0
EditAction 1639309179674 Plg.java 2494 9 18 0
EditAction 1639309181397 Plg.java 2494 9 18 0
EditAction 1639309181410 Plg.java 2494 9 18 0
EditAction 1639309181574 Plg.java 2494 9 18 0
EditAction 1639309184442 Plg.java 2494 9 18 0
EditAction 1639309184462 Plg.java 2494 9 18 0
EditAction 1639309184476 Plg.java 2494 9 18 0
EditAction 1639309184522 Plg.java 2494 9 18 0
EditAction 1639309184687 Plg.java 2494 9 18 0
EditAction 1639309186251 Plg.java 2494 9 18 0
EditAction 1639309186262 Plg.java 2494 9 18 0
EditAction 1639309186272 Plg.java 2494 9 18 0
EditAction 1639309186299 Plg.java 2494 9 18 0
EditAction 1639309186410 Plg.java 2494 9 18 0
CodeEditingAction 1639309194151 Plg.java CHANGE Plg.java CLASS
EditAction 1639309194283 Plg.java 2481 9 18 0
EditAction 1639309194782 Plg.java 2481 9 18 0
TestPassAction 1639309195194 PglTest.java OK
EditAction 1639309232001 Plg.java 2481 9 18 0
EditAction 1639309232014 Plg.java 2481 9 18 0
EditAction 1639309232043 Plg.java 2481 9 18 0
CodeEditingAction 1639309300664 Plg.java ADD Plg.java CLASS
CodeEditingAction 1639309322128 Plg.java ADD Plg.java CLASS
CodeEditingAction 1639309355165 Plg.java CHANGE Plg.java CLASS
EditAction 1639309355826 Plg.java 2478 9 18 0
TestPassAction 1639309356150 PglTest.java OK
CodeEditingAction 1639309473658 Plg.java CHANGE Plg.java CLASS
EditAction 1639309474313 Plg.java 2481 9 18 0
TestPassAction 1639309474618 PglTest.java OK
