CodeEditingAction 1639403113834 Plg.java CHANGE Plg.java CLASS
EditAction 1639403114630 Plg.java 6965 11 26 0
TestFailureAction 1639403114780 PglTest.java FAIL
CodeEditingAction 1639403191141 Plg.java CHANGE Plg.java CLASS
EditAction 1639403192115 Plg.java 7015 11 27 0
TestFailureAction 1639403192258 PglTest.java FAIL
CodeEditingAction 1639403305076 Plg.java CHANGE Plg.java CLASS
EditAction 1639403305139 Plg.java 6953 11 27 0
EditAction 1639403305885 Plg.java 6953 11 27 0
CodeEditingAction 1639403325589 Plg.java CHANGE Plg.java CLASS
EditAction 1639403325590 Plg.java 6953 11 27 0
EditAction 1639403325692 Plg.java 6953 11 27 0
EditAction 1639403326294 Plg.java 6953 11 27 0
TestFailureAction 1639403326624 PglTest.java FAIL
CodeEditingAction 1639403471428 Plg.java CHANGE Plg.java CLASS
EditAction 1639403472316 Plg.java 7028 11 28 0
TestFailureAction 1639403472558 PglTest.java FAIL
CodeEditingAction 1639403527202 Plg.java CHANGE Plg.java CLASS
EditAction 1639403528089 Plg.java 7027 11 28 0
TestFailureAction 1639403528227 PglTest.java FAIL
CodeEditingAction 1639403663650 Plg.java CHANGE Plg.java CLASS
EditAction 1639403664446 Plg.java 6901 11 26 0
TestFailureAction 1639403664688 PglTest.java FAIL
CodeEditingAction 1639403839974 Plg.java CHANGE Plg.java CLASS
EditAction 1639403840924 Plg.java 7012 11 26 0
TestFailureAction 1639403840995 PglTest.java FAIL
CodeEditingAction 1639403878644 Plg.java CHANGE Plg.java CLASS
EditAction 1639403878645 Plg.java 7012 11 26 0
EditAction 1639403879556 Plg.java 7012 11 26 0
TestFailureAction 1639403879834 PglTest.java FAIL
CodeEditingAction 1639404106231 Plg.java CHANGE Plg.java CLASS
EditAction 1639404107118 Plg.java 7147 11 26 0
TestFailureAction 1639404107232 PglTest.java FAIL
CodeEditingAction 1639404159938 Plg.java CHANGE Plg.java CLASS
EditAction 1639404160864 Plg.java 7153 11 26 0
TestFailureAction 1639404160985 PglTest.java FAIL
CodeEditingAction 1639404212051 Plg.java CHANGE Plg.java CLASS
TestFailureAction 1639404213001 PglTest.java FAIL
EditAction 1639404213070 Plg.java 7182 11 26 0
CodeEditingAction 1639404274872 Plg.java CHANGE Plg.java CLASS
EditAction 1639404274873 Plg.java 6854 11 26 0
EditAction 1639404275858 Plg.java 6854 11 25 0
