CodeEditingAction 1639267953355 Plg.java CHANGE Plg.java CLASS
TestPassAction 1639267954228 PglTest.java OK
EditAction 1639267954388 Plg.java 1642 5 6 0
CodeEditingAction 1639268096387 Plg.java CHANGE Plg.java CLASS
TestFailureAction 1639268097358 PglTest.java FAIL
EditAction 1639268097360 Plg.java 1580 5 6 0
CodeEditingAction 1639268179206 Plg.java CHANGE Plg.java CLASS
TestFailureAction 1639268180018 PglTest.java FAIL
EditAction 1639268180172 Plg.java 1658 5 6 0
TestFailureAction 1639268190432 PglTest.java FAIL
CodeEditingAction 1639268228365 Plg.java CHANGE Plg.java CLASS
EditAction 1639268228366 Plg.java 1658 5 6 0
TestFailureAction 1639268229262 PglTest.java FAIL
EditAction 1639268229345 Plg.java 1658 5 6 0
CodeEditingAction 1639268280425 Plg.java CHANGE Plg.java CLASS
EditAction 1639268281383 Plg.java 1628 5 6 0
TestPassAction 1639268281496 PglTest.java OK
