CodeEditingAction 1639408478382 PglTest.java ADD void testTradfrasi() METHOD
CodeEditingAction 1639408481892 PglTest.java RENAME testTradfrasi()=>void testTradfrasiMaiuscole() METHOD
CodeEditingAction 1639408522128 PglTest.java CHANGE PglTest.java CLASS
EditAction 1639408522129 PglTest.java 5502 25 75 25
EditAction 1639408522163 PglTest.java 5502 25 75 25
EditAction 1639408522523 PglTest.java 5502 25 75 25
TestFailureAction 1639408522554 PglTest.java FAIL
CodeEditingAction 1639409192171 Plg.java CHANGE Plg.java CLASS
EditAction 1639409192202 Plg.java 5083 11 22 0
EditAction 1639409192779 Plg.java 5083 11 22 0
CodeEditingAction 1639409236640 Plg.java CHANGE Plg.java CLASS
EditAction 1639409236667 Plg.java 5099 11 23 0
TestFailureAction 1639409237057 PglTest.java FAIL
EditAction 1639409237380 Plg.java 5099 11 23 0
CodeEditingAction 1639409308634 Plg.java CHANGE Plg.java CLASS
TestFailureAction 1639409309017 PglTest.java FAIL
EditAction 1639409309359 Plg.java 5179 11 23 0
CodeEditingAction 1639409363741 Plg.java CHANGE Plg.java CLASS
TestFailureAction 1639409364156 PglTest.java FAIL
EditAction 1639409364333 Plg.java 5178 11 23 0
CodeEditingAction 1639409410561 Plg.java CHANGE Plg.java CLASS
TestFailureAction 1639409410975 PglTest.java FAIL
EditAction 1639409411185 Plg.java 5225 11 24 0
CodeEditingAction 1639409480991 Plg.java CHANGE Plg.java CLASS
TestFailureAction 1639409481435 PglTest.java FAIL
EditAction 1639409481595 Plg.java 5310 11 24 0
CodeEditingAction 1639409519752 PglTest.java CHANGE PglTest.java CLASS
EditAction 1639409519752 PglTest.java 5502 25 75 25
EditAction 1639409519780 PglTest.java 5502 25 75 25
TestFailureAction 1639409520225 PglTest.java FAIL
EditAction 1639409520247 PglTest.java 5502 25 75 25
CodeEditingAction 1639409765941 PglTest.java CHANGE PglTest.java CLASS
EditAction 1639409765942 PglTest.java 5503 25 75 25
EditAction 1639409765972 PglTest.java 5503 25 75 25
EditAction 1639409766340 PglTest.java 5503 25 75 25
TestPassAction 1639409766441 PglTest.java OK
