CodeEditingAction 1639315809881 Plg.java CHANGE Plg.java CLASS
EditAction 1639315810487 Plg.java 2777 9 17 0
TestFailureAction 1639315810553 PglTest.java FAIL
CodeEditingAction 1639315851073 Plg.java CHANGE Plg.java CLASS
EditAction 1639315851765 Plg.java 2829 9 17 0
TestFailureAction 1639315851967 PglTest.java FAIL
CodeEditingAction 1639315912954 Plg.java RENAME traduciPiuParole(ArrayList<String>)=>String traduciPiuParole(ArrayList<String>, char) METHOD
CodeEditingAction 1639316026009 Plg.java ADD Plg.java CLASS
CodeEditingAction 1639316042125 Plg.java CHANGE Plg.java CLASS
EditAction 1639316042209 PglTest.java 3867 18 54 18
EditAction 1639316042220 Plg.java 2891 9 16 0
CodeEditingAction 1639316054719 Plg.java CHANGE Plg.java CLASS
EditAction 1639316054769 Plg.java 2892 9 17 0
EditAction 1639316055298 Plg.java 2892 9 17 0
CodeEditingAction 1639316107946 Plg.java CHANGE Plg.java CLASS
EditAction 1639316107997 Plg.java 2896 9 17 0
EditAction 1639316108581 Plg.java 2896 9 17 0
TestFailureAction 1639316108875 PglTest.java FAIL
CodeEditingAction 1639316158459 Plg.java CHANGE Plg.java CLASS
EditAction 1639316159121 Plg.java 2924 9 17 0
TestFailureAction 1639316159436 PglTest.java FAIL
CodeEditingAction 1639316180607 Plg.java RENAME traduciPiuParole(ArrayList<String>, char)=>String traduciPiuParole(ArrayList<String>) METHOD
CodeEditingAction 1639316183146 Plg.java RENAME traduciPiuParole(ArrayList<String>)=>String traduciPiuParole(ArrayList<String>, String) METHOD
CodeEditingAction 1639316228847 Plg.java CHANGE Plg.java CLASS
EditAction 1639316228930 PglTest.java 3867 18 54 18
EditAction 1639316229497 Plg.java 2927 9 17 0
TestFailureAction 1639316229859 PglTest.java FAIL
CodeEditingAction 1639316316298 Plg.java CHANGE Plg.java CLASS
EditAction 1639316317006 Plg.java 3039 9 17 0
TestFailureAction 1639316317251 PglTest.java FAIL
CodeEditingAction 1639316375136 Plg.java CHANGE Plg.java CLASS
EditAction 1639316375818 Plg.java 3041 9 17 0
TestFailureAction 1639316376208 PglTest.java FAIL
CodeEditingAction 1639316419206 PglTest.java CHANGE PglTest.java CLASS
EditAction 1639316419207 PglTest.java 3868 18 54 18
EditAction 1639316419265 PglTest.java 3868 18 54 18
EditAction 1639316419708 PglTest.java 3868 18 54 18
TestPassAction 1639316420195 PglTest.java OK
CodeEditingAction 1639316443896 Plg.java CHANGE Plg.java CLASS
EditAction 1639316444531 Plg.java 2915 9 17 0
TestPassAction 1639316444844 PglTest.java OK
